{
  "nom": "Girard",
  "prenom": "Thierry",
  "age": "22",
  "adresse": "crous",
  "codePostal": "91400",
  "ville": "orsay",
  "formations": [
    {
      "annee": "2018",
      "resume": "Polytech Paris-Sud"
    },
    {
      "annee": "2015",
      "resume": "DUT"
    },
    {
      "annee": "2013",
      "resume": "Bac S"
    }
  ],
  "experiences": [
    {
      "debut": "2015",
      "fin": "2018",
      "resume": "PSA"
    },
    {
      "debut": "2015",
      "fin": "2015",
      "resume": "Stage Conseil r\u00e9gional de Picardie"
    }
  ],
  "competences": [
    {
      "competence": "Anglais",
      "niveau": "8"
    },
    {
      "competence": "c++",
      "niveau": "6"
    },
    {
      "competence": "xml",
      "niveau": "0"
    }
  ]
}
